{
    "calibrationMatrix": [
        2467.89990234375,
        0.0,
        722.484375,
        0.0,
        2469.0,
        583.3048706054688,
        0.0,
        0.0,
        1.0
    ],
    "calibrationMatrixClient": [
        2436.199951171875,
        0.0,
        787.2471923828125,
        0.0,
        2436.5,
        572.0797729492188,
        0.0,
        0.0,
        1.0
    ],
    "calibrationMatrix_c2a8_imx273-inclined": [
        2467.89990234375,
        0.0,
        722.484375,
        0.0,
        2469.0,
        583.3048706054688,
        0.0,
        0.0,
        1.0
    ],
    "calibrationMatrix_c2a8_imx273": [
        2503.800048828125,
        0.0,
        723.68701171875,
        0.0,
        2504.699951171875,
        594.3159790039062,
        0.0,
        0.0,
        1.0
    ],
    "cam_intrinsic": [
        2496.39990234375,
        0.0,
        748.1583862304688,
        0.0,
        2497.800048828125,
        581.7260131835938,
        0.0,
        0.0,
        1.0,
        -0.0803999975323677,
        -0.042399998754262924,
        0.8163999915122986,
        0.0027000000700354576,
        -0.0006226599798537791
    ],
    "cam_intrinsic_client": [
        2389.0,
        0.0,
        785.7105102539062,
        0.0,
        2389.0,
        603.6832885742188,
        0.0,
        0.0,
        1.0,
        -0.06849999725818634,
        -0.008500000461935997,
        0.44029998779296875,
        0.0010999999940395355,
        -2.2455000362242572e-05
    ],
    "defaultCalibrationMatrix": [
        2470.0,
        0.0,
        720.0,
        0.0,
        2470.0,
        540.0,
        0.0,
        0.0,
        1.0
    ],
    "defaultDistortionCoeff": [
        0.0,
        0.0,
        0.0,
        0.0,
        0.0
    ],
    "distortionCoeff": [
        -0.09719999879598618,
        0.051100000739097595,
        0.6104999780654907,
        -0.00044798001181334257,
        0.00030417999369092286
    ],
    "distortionCoeffClient": [
        -0.08550000190734863,
        0.06379999965429306,
        0.526199996471405,
        0.0007064000237733126,
        0.00038764000055380166
    ],
    "distortionCoeff_c2a8_imx273-inclined": [
        -0.08100000023841858,
        0.08910000324249268,
        -0.024700000882148743,
        0.0012000000569969416,
        -0.0010000000474974513
    ],
    "distortionCoeff_c2a8_imx273": [
        -0.09719999879598618,
        0.051100000739097595,
        0.6104999780654907,
        -0.00044798001181334257,
        0.00030417999369092286
    ],
    "fieldCalibRotation": [
        -0.8689935803413391,
        -0.0638180524110794,
        -0.49069076776504517,
        -0.4921070337295532,
        0.007696747314184904,
        0.8705006837844849,
        -0.0517769381403923,
        0.9979318976402283,
        -0.03809373825788498
    ],
    "fieldCalibTranslation": [
        2.768350601196289,
        -4.494932174682617,
        0.9778867959976196
    ],
    "step2CalibF1HB3Dpoints": [
        0.010499999858438969,
        0.41100001335144043,
        1.0509999990463257,
        -0.13824999332427979,
        0.41100001335144043,
        1.1997499465942383,
        -0.13824999332427979,
        0.41100001335144043,
        0.9022499918937683,
        0.15925000607967377,
        0.41100001335144043,
        0.9022499918937683,
        0.15925000607967377,
        0.41100001335144043,
        1.1997499465942383,
        0.010499999858438969,
        0.41100001335144043,
        0.25049999356269836,
        -0.13824999332427979,
        0.41100001335144043,
        0.39925000071525574,
        -0.13824999332427979,
        0.41100001335144043,
        0.10175000131130219,
        0.15925000607967377,
        0.41100001335144043,
        0.10175000131130219,
        0.15925000607967377,
        0.41100001335144043,
        0.39925000071525574
    ],
    "step2CalibLeftCamera3Dpoints": [
        0.012500000186264515,
        0.4269999861717224,
        1.0499999523162842,
        0.012500000186264515,
        0.4269999861717224,
        0.25,
        -0.21250000596046448,
        0.22699999809265137,
        1.0499999523162842,
        -0.21250000596046448,
        0.22699999809265137,
        0.25,
        0.08860703557729721,
        0.05517137050628662,
        1.0499999523162842,
        0.08860703557729721,
        0.05517137050628662,
        0.25,
        0.0,
        4.0,
        1.0499999523162842,
        0.0,
        4.0,
        0.25
    ],
    "step2CalibLeftCamera3DpointsNewSingHB": [
        0.012500000186264515,
        0.4269999861717224,
        1.0499999523162842,
        0.012500000186264515,
        0.4269999861717224,
        0.25,
        0.23649999499320984,
        0.22699999809265137,
        1.0499999523162842,
        0.23649999499320984,
        0.22699999809265137,
        0.25,
        0.08860703557729721,
        0.05517137050628662,
        1.0499999523162842,
        0.08860703557729721,
        0.05517137050628662,
        0.25,
        0.0,
        18.440399169921875,
        1.0499999523162842,
        0.0,
        18.440399169921875,
        0.25
    ],
    "step2CalibLeftCamera3DpointsNewSingHBAllhomeplate": [
        0.012500000186264515,
        0.4269999861717224,
        1.0455000400543213,
        0.012500000186264515,
        0.4269999861717224,
        0.24500000476837158,
        0.23649999499320984,
        0.22699999809265137,
        1.0455000400543213,
        0.23649999499320984,
        0.22699999809265137,
        0.24500000476837158,
        0.08860703557729721,
        0.05517137050628662,
        1.0455000400543213,
        0.08860703557729721,
        0.05517137050628662,
        0.24500000476837158,
        -0.21250000596046448,
        0.22699999809265137,
        1.0455000400543213,
        -0.21250000596046448,
        0.22699999809265137,
        0.24500000476837158
    ],
    "step2CalibLeftCamera3DpointsNewSingHBAntiClock": [
        0.012500000186264515,
        0.4269999861717224,
        1.0499999523162842,
        0.012500000186264515,
        0.4269999861717224,
        0.25,
        -0.21250000596046448,
        0.22699999809265137,
        1.0499999523162842,
        -0.21250000596046448,
        0.22699999809265137,
        0.25,
        0.08860703557729721,
        0.05517137050628662,
        1.0499999523162842,
        0.08860703557729721,
        0.05517137050628662,
        0.25,
        0.0,
        18.440399169921875,
        1.0499999523162842,
        0.0,
        18.440399169921875,
        0.25
    ],
    "step2CalibLeftCamera3DpointsNewSingHBAntiClock15m": [
        0.012500000186264515,
        0.4269999861717224,
        1.0499999523162842,
        0.012500000186264515,
        0.4269999861717224,
        0.25,
        -0.21250000596046448,
        0.22699999809265137,
        1.0499999523162842,
        -0.21250000596046448,
        0.22699999809265137,
        0.25,
        0.08860703557729721,
        0.05517137050628662,
        1.0499999523162842,
        0.08860703557729721,
        0.05517137050628662,
        0.25,
        0.0,
        15.0,
        1.0499999523162842,
        0.0,
        15.0,
        0.25
    ],
    "step2CalibLeftCamera3DpointsNewSingHBAntiClock4m": [
        0.012500000186264515,
        0.4269999861717224,
        1.0499999523162842,
        0.012500000186264515,
        0.4269999861717224,
        0.25,
        -0.21250000596046448,
        0.22699999809265137,
        1.0499999523162842,
        -0.21250000596046448,
        0.22699999809265137,
        0.25,
        0.08860703557729721,
        0.05517137050628662,
        1.0499999523162842,
        0.08860703557729721,
        0.05517137050628662,
        0.25,
        0.0,
        4.0,
        1.0499999523162842,
        0.0,
        4.0,
        0.25
    ],
    "step2CalibLeftCamera3DpointsUSHB": [
        0.01590000092983246,
        0.4311000108718872,
        1.0499999523162842,
        0.01590000092983246,
        0.4311000108718872,
        0.25,
        0.23989999294281006,
        0.23109999299049377,
        1.0499999523162842,
        0.23989999294281006,
        0.23109999299049377,
        0.25,
        0.09119217842817307,
        0.05701036751270294,
        1.0499999523162842,
        0.09119217842817307,
        0.05701036751270294,
        0.25,
        0.0,
        18.440399169921875,
        1.0499999523162842,
        0.0,
        18.440399169921875,
        0.25
    ],
    "step2CalibLeftCamera3DpointsUSHBAllhomeplate": [
        0.01590000092983246,
        0.4311000108718872,
        1.0509999990463257,
        0.01590000092983246,
        0.4311000108718872,
        0.25049999356269836,
        0.23989999294281006,
        0.23109999299049377,
        1.0509999990463257,
        0.23989999294281006,
        0.23109999299049377,
        0.25049999356269836,
        0.09119217842817307,
        0.05701036751270294,
        1.0509999990463257,
        0.09119217842817307,
        0.05701036751270294,
        0.25049999356269836,
        -0.2159000039100647,
        0.23109999299049377,
        1.0509999990463257,
        -0.2159000039100647,
        0.23109999299049377,
        0.25049999356269836
    ],
    "step2CalibRightCamera3Dpoints": [
        0.012500000186264515,
        0.4269999861717224,
        1.0499999523162842,
        0.012500000186264515,
        0.4269999861717224,
        0.25,
        0.21250000596046448,
        0.414000004529953,
        1.0499999523162842,
        0.21250000596046448,
        0.414000004529953,
        0.25,
        -0.15795324742794037,
        0.12500707805156708,
        1.0499999523162842,
        -0.15795324742794037,
        0.12500707805156708,
        0.25,
        0.0,
        4.0,
        1.0499999523162842,
        0.0,
        4.0,
        0.25
    ],
    "step2CalibRightCamera3DpointsNewSingHB": [
        0.012500000186264515,
        0.4269999861717224,
        1.0499999523162842,
        0.012500000186264515,
        0.4269999861717224,
        0.25,
        0.21250000596046448,
        0.414000004529953,
        1.0499999523162842,
        0.21250000596046448,
        0.414000004529953,
        0.25,
        -0.15795324742794037,
        0.12500707805156708,
        1.0499999523162842,
        -0.15795324742794037,
        0.12500707805156708,
        0.25,
        0.0,
        18.440399169921875,
        1.0499999523162842,
        0.0,
        18.440399169921875,
        0.25
    ],
    "step2CalibRightCamera3DpointsNewSingHB15m": [
        0.012500000186264515,
        0.4269999861717224,
        1.0499999523162842,
        0.012500000186264515,
        0.4269999861717224,
        0.25,
        0.21250000596046448,
        0.414000004529953,
        1.0499999523162842,
        0.21250000596046448,
        0.414000004529953,
        0.25,
        -0.15795324742794037,
        0.12500707805156708,
        1.0499999523162842,
        -0.15795324742794037,
        0.12500707805156708,
        0.25,
        0.0,
        15.0,
        1.0499999523162842,
        0.0,
        15.0,
        0.25
    ],
    "step2CalibRightCamera3DpointsNewSingHB4m": [
        0.012500000186264515,
        0.4269999861717224,
        1.0499999523162842,
        0.012500000186264515,
        0.4269999861717224,
        0.25,
        0.21250000596046448,
        0.414000004529953,
        1.0499999523162842,
        0.21250000596046448,
        0.414000004529953,
        0.25,
        -0.15795324742794037,
        0.12500707805156708,
        1.0499999523162842,
        -0.15795324742794037,
        0.12500707805156708,
        0.25,
        0.0,
        4.0,
        1.0499999523162842,
        0.0,
        4.0,
        0.25
    ],
    "step2CalibRightCamera3DpointsNewSingHBAllhomeplate": [
        0.012500000186264515,
        0.4269999861717224,
        1.0455000400543213,
        0.012500000186264515,
        0.4269999861717224,
        0.24500000476837158,
        0.21250000596046448,
        0.414000004529953,
        1.0455000400543213,
        0.21250000596046448,
        0.414000004529953,
        0.24500000476837158,
        -0.15795324742794037,
        0.12500707805156708,
        1.0455000400543213,
        -0.15795324742794037,
        0.12500707805156708,
        0.24500000476837158,
        -0.23649999499320984,
        0.414000004529953,
        1.0455000400543213,
        -0.23649999499320984,
        0.414000004529953,
        0.24500000476837158
    ],
    "step2CalibRightCamera3DpointsUSHB": [
        0.01590000092983246,
        0.4311000108718872,
        1.0499999523162842,
        0.01590000092983246,
        0.4311000108718872,
        0.25,
        0.2159000039100647,
        0.41519999504089355,
        1.0499999523162842,
        0.2159000039100647,
        0.41519999504089355,
        0.25,
        -0.1585937887430191,
        0.12419343739748001,
        1.0499999523162842,
        -0.1585937887430191,
        0.12419343739748001,
        0.25,
        0.0,
        18.440399169921875,
        1.0499999523162842,
        0.0,
        18.440399169921875,
        0.25
    ],
    "step2CalibRightCamera3DpointsUSHBAllhomeplate": [
        0.01590000092983246,
        0.4311000108718872,
        1.0509999990463257,
        0.01590000092983246,
        0.4311000108718872,
        0.25049999356269836,
        0.2159000039100647,
        0.41519999504089355,
        1.0509999990463257,
        0.2159000039100647,
        0.41519999504089355,
        0.25049999356269836,
        -0.1585937887430191,
        0.12419343739748001,
        1.0509999990463257,
        -0.1585937887430191,
        0.12419343739748001,
        0.25049999356269836,
        -0.23989999294281006,
        0.41519999504089355,
        1.0509999990463257,
        -0.23989999294281006,
        0.41519999504089355,
        0.25049999356269836
    ]
}